{
    "data": [
        {
            "code": "contract",
            "label": "Typ umowy",
            "unit": "",
            "validation": {
                "type": "attribute",
                "required": true,
                "numeric": false,
                "min": null,
                "max": null,
                "allow_multiple_values": false
            },
            "values": [
                {
                    "code": "part",
                    "label": "Umowa o pracę"
                },
                {
                    "code": "contract",
                    "label": "Umowa o dzieło"
                },
                {
                    "code": "zlecenie",
                    "label": "Umowa zlecenie"
                },
                {
                    "code": "other",
                    "label": "Inny"
                },
                {
                    "code": "selfemployment",
                    "label": "Samozatrudnienie"
                }
            ]
        },
        {
            "code": "type",
            "label": "Wymiar pracy",
            "unit": "",
            "validation": {
                "type": "attribute",
                "required": true,
                "numeric": false,
                "min": null,
                "max": null,
                "allow_multiple_values": false
            },
            "values": [
                {
                    "code": "fulltime",
                    "label": "Pełny etat"
                },
                {
                    "code": "halftime",
                    "label": "Dodatkowa / sezonowa"
                },
                {
                    "code": "practice",
                    "label": "Praktyka / staż"
                },
                {
                    "code": "parttime",
                    "label": "Niepełny etat"
                }
            ]
        },
        {
            "code": "manager",
            "label": "Kadra kierownicza",
            "unit": "",
            "validation": {
                "type": "attribute",
                "required": false,
                "numeric": false,
                "min": null,
                "max": null,
                "allow_multiple_values": false
            },
            "values": [
                {
                    "code": 1,
                    "label": "tak"
                },
                {
                    "code": 0,
                    "label": "nie"
                }
            ]
        },
        {
            "code": "remote_recruitment",
            "label": "Rekrutacja online",
            "unit": "",
            "validation": {
                "type": "attribute",
                "required": false,
                "numeric": false,
                "min": null,
                "max": null,
                "allow_multiple_values": false
            },
            "values": [
                {
                    "code": 1,
                    "label": "tak"
                },
                {
                    "code": 0,
                    "label": "nie"
                }
            ]
        },
        {
            "code": "experience",
            "label": "Wymagane doświadczenie",
            "unit": "",
            "validation": {
                "type": "attribute",
                "required": true,
                "numeric": false,
                "min": null,
                "max": null,
                "allow_multiple_values": false
            },
            "values": [
                {
                    "code": "exp_yes",
                    "label": "Tak"
                },
                {
                    "code": "exp_no",
                    "label": "Nie"
                }
            ]
        },
        {
            "code": "shift_work",
            "label": "Praca zmianowa",
            "unit": "",
            "validation": {
                "type": "attribute",
                "required": false,
                "numeric": false,
                "min": null,
                "max": null,
                "allow_multiple_values": false
            },
            "values": [
                {
                    "code": 1,
                    "label": "tak"
                },
                {
                    "code": 0,
                    "label": "nie"
                }
            ]
        },
        {
            "code": "weekends_work",
            "label": "Praca w weekendy",
            "unit": "",
            "validation": {
                "type": "attribute",
                "required": false,
                "numeric": false,
                "min": null,
                "max": null,
                "allow_multiple_values": false
            },
            "values": [
                {
                    "code": 1,
                    "label": "tak"
                },
                {
                    "code": 0,
                    "label": "nie"
                }
            ]
        },
        {
            "code": "flexible_work",
            "label": "Elastyczny czas pracy",
            "unit": "",
            "validation": {
                "type": "attribute",
                "required": false,
                "numeric": false,
                "min": null,
                "max": null,
                "allow_multiple_values": false
            },
            "values": [
                {
                    "code": 1,
                    "label": "tak"
                },
                {
                    "code": 0,
                    "label": "nie"
                }
            ]
        },
        {
            "code": "special_requirements",
            "label": "Specjalne wymagania",
            "unit": "",
            "validation": {
                "type": "attribute",
                "required": false,
                "numeric": false,
                "min": null,
                "max": null,
                "allow_multiple_values": true
            },
            "values": [
                {
                    "code": "sanitary_card",
                    "label": "Książeczka sanepidowska"
                },
                {
                    "code": "disability_certificate",
                    "label": "Orzeczenie o niepełnosprawności"
                },
                {
                    "code": "student_status",
                    "label": "Status studenta"
                }
            ]
        },
        {
            "code": "remote_work_possibility",
            "label": "Możliwość pracy zdalnej",
            "unit": "",
            "validation": {
                "type": "attribute",
                "required": false,
                "numeric": false,
                "min": null,
                "max": null,
                "allow_multiple_values": false
            },
            "values": [
                {
                    "code": 1,
                    "label": "tak"
                },
                {
                    "code": 0,
                    "label": "nie"
                }
            ]
        },
        {
            "code": "ua_people",
            "label": "🇺🇦 Запрошуємо людей з України (Zapraszamy pracowników z Ukrainy)",
            "unit": "",
            "validation": {
                "type": "attribute",
                "required": false,
                "numeric": false,
                "min": null,
                "max": null,
                "allow_multiple_values": false
            },
            "values": [
                {
                    "code": 1,
                    "label": "tak"
                },
                {
                    "code": 0,
                    "label": "nie"
                }
            ]
        },
        {
            "code": "without_polish",
            "label": "🇺🇦 Польська мова не обов'язкова (Jęz. polski niewymagany)",
            "unit": "",
            "validation": {
                "type": "attribute",
                "required": false,
                "numeric": false,
                "min": null,
                "max": null,
                "allow_multiple_values": false
            },
            "values": [
                {
                    "code": 1,
                    "label": "tak"
                },
                {
                    "code": 0,
                    "label": "nie"
                }
            ]
        },
        {
            "code": "senior_friendly",
            "label": "Zapraszamy seniorów",
            "unit": "",
            "validation": {
                "type": "attribute",
                "required": false,
                "numeric": false,
                "min": null,
                "max": null,
                "allow_multiple_values": false
            },
            "values": [
                {
                    "code": 1,
                    "label": "tak"
                },
                {
                    "code": 0,
                    "label": "nie"
                }
            ]
        }
    ]
}
