{
    "data": [
        {
            "code": "state",
            "label": "Stan",
            "unit": "",
            "validation": {
                "type": "attribute",
                "required": false,
                "numeric": false,
                "min": null,
                "max": null,
                "allow_multiple_values": false
            },
            "values": [
                {
                    "code": "used",
                    "label": "Używane"
                },
                {
                    "code": "new",
                    "label": "Nowe"
                },
                {
                    "code": "damaged",
                    "label": "Uszkodzone"
                }
            ]
        }
    ]
}
